<svg width="17" height="19" viewBox="0 0 17 19" fill="none" xmlns="http://www.w3.org/2000/svg">
<path d="M13.055 10.2343L13.055 8.63049L9.6362 8.63049L9.6362 1.41768e-06L17 2.06145e-06L17 8.63049L16.9998 8.63049L16.9998 10.2343C16.9998 13.4912 16.2003 15.9095 14.6234 17.4226C13.5325 18.4693 12.1517 19 10.5193 19L10.5193 14.3767C11.4054 14.3767 13.055 14.3767 13.055 10.2343ZM0.882975 14.3767L0.882975 19C2.51535 19 3.89615 18.4693 4.98701 17.4226C6.56394 15.9095 7.36353 13.4911 7.36353 10.2343L7.36353 8.63048L7.36353 1.219e-06L-4.16788e-07 5.7526e-07L-1.17129e-06 8.63048L3.41879 8.63048L3.41879 10.2343C3.41871 14.3767 1.76916 14.3767 0.882975 14.3767Z" fill="#6B6868"/>
</svg>
